%YAML 1.1
%TAG !u! tag:unity3d.com,2011:
--- !u!114 &11400000
MonoBehaviour:
  m_ObjectHideFlags: 0
  m_CorrespondingSourceObject: {fileID: 0}
  m_PrefabInstance: {fileID: 0}
  m_PrefabAsset: {fileID: 0}
  m_GameObject: {fileID: 0}
  m_Enabled: 1
  m_EditorHideFlags: 0
  m_Script: {fileID: 11500000, guid: 95e66c6366d904e98bc83428217d4fd7, type: 3}
  m_Name: callFinalScorePanel
  m_EditorClassIdentifier: 
  _data:
    _json: '{"graph":{"variables":{"collection":{"$content":[],"$version":"A"},"$version":"A"},"controlInputDefinitions":[],"controlOutputDefinitions":[],"valueInputDefinitions":[],"valueOutputDefinitions":[],"title":null,"summary":null,"pan":{"x":-28.1454,"y":9.91592},"zoom":0.8,"elements":[{"coroutine":false,"defaultValues":{"target":null},"position":{"x":-198.0,"y":-133.0},"guid":"88c51fcd-7991-4886-a157-50426b50ac4c","$version":"A","$type":"Unity.VisualScripting.OnTriggerEnter","$id":"9"},{"chainable":false,"member":{"name":"SetActive","parameterTypes":["System.Boolean"],"targetType":"UnityEngine.GameObject","targetTypeName":"UnityEngine.GameObject","$version":"A"},"defaultValues":{"target":null,"%value":{"$content":true,"$type":"System.Boolean"}},"position":{"x":145.0,"y":-128.0},"guid":"043a7c8c-7da1-485e-99ec-323f95c08e7b","$version":"A","$type":"Unity.VisualScripting.InvokeMember","$id":"11"},{"specifyFallback":false,"kind":"Object","defaultValues":{"name":{"$content":"finalscorePanel","$type":"System.String"},"object":null},"position":{"x":-103.0,"y":70.0},"guid":"0fcb1cab-46fc-4f50-9317-1fa379cf0756","$version":"A","$type":"Unity.VisualScripting.GetVariable","$id":"14"},{"specifyFallback":false,"kind":"Scene","defaultValues":{"name":{"$content":"player","$type":"System.String"}},"position":{"x":-270.0,"y":14.0},"guid":"aa8bde86-fbba-4d07-83cf-8a25d5da53d8","$version":"A","$type":"Unity.VisualScripting.GetVariable","$id":"16"},{"sourceUnit":{"$ref":"9"},"sourceKey":"trigger","destinationUnit":{"$ref":"11"},"destinationKey":"enter","guid":"c97d09e4-a0a5-413e-a699-592ebd48bf9f","$type":"Unity.VisualScripting.ControlConnection"},{"sourceUnit":{"$ref":"14"},"sourceKey":"value","destinationUnit":{"$ref":"11"},"destinationKey":"target","guid":"fb6540f4-1b3a-4f26-8d6e-21e4fb8649cd","$type":"Unity.VisualScripting.ValueConnection"},{"sourceUnit":{"$ref":"16"},"sourceKey":"value","destinationUnit":{"$ref":"9"},"destinationKey":"target","guid":"57edd4c5-b5c9-468b-8f81-d6206c542d66","$type":"Unity.VisualScripting.ValueConnection"}],"$version":"A"}}'
    _objectReferences: []
