%YAML 1.1
%TAG !u! tag:unity3d.com,2011:
--- !u!114 &-5919898529412303996
MonoBehaviour:
  m_ObjectHideFlags: 0
  m_CorrespondingSourceObject: {fileID: 0}
  m_PrefabInstance: {fileID: 0}
  m_PrefabAsset: {fileID: 0}
  m_GameObject: {fileID: 0}
  m_Enabled: 1
  m_EditorHideFlags: 0
  m_Script: {fileID: 11500000, guid: 163c147d123e4a945b688eddc64e3ea5, type: 3}
  m_Name: RootNode
  m_EditorClassIdentifier: 
  state: 0
  started: 0
  guid: 3efabd2a975b56749a3d2f8c49c44d89
  position: {x: 0, y: 0}
  position3D: {x: 0, y: 0, z: 0}
  blackboard:
    moveToPosition: {x: 0, y: 0, z: 0}
  description: 
  drawGizmos: 0
  child: {fileID: 714291097898240324}
--- !u!114 &11400000
MonoBehaviour:
  m_ObjectHideFlags: 0
  m_CorrespondingSourceObject: {fileID: 0}
  m_PrefabInstance: {fileID: 0}
  m_PrefabAsset: {fileID: 0}
  m_GameObject: {fileID: 0}
  m_Enabled: 1
  m_EditorHideFlags: 0
  m_Script: {fileID: 11500000, guid: 2d285eb63c2cdd74180de7cfceaa96ad, type: 3}
  m_Name: RotateA
  m_EditorClassIdentifier: 
  rootNode: {fileID: -5919898529412303996}
  treeState: 0
  nodes:
  - {fileID: -5919898529412303996}
  - {fileID: 714291097898240324}
  - {fileID: 1428606794834663132}
  - {fileID: 6301215992387309663}
  blackboard:
    moveToPosition: {x: 0, y: 0, z: 0}
--- !u!114 &714291097898240324
MonoBehaviour:
  m_ObjectHideFlags: 0
  m_CorrespondingSourceObject: {fileID: 0}
  m_PrefabInstance: {fileID: 0}
  m_PrefabAsset: {fileID: 0}
  m_GameObject: {fileID: 0}
  m_Enabled: 1
  m_EditorHideFlags: 0
  m_Script: {fileID: 11500000, guid: afb5496e8cd973748a10b3e3ef436ebd, type: 3}
  m_Name: Repeat
  m_EditorClassIdentifier: 
  state: 0
  started: 0
  guid: 1d921bc3786d6b24ab0ba7b85a499e58
  position: {x: -5, y: 108}
  position3D: {x: 0, y: 0, z: 0}
  blackboard:
    moveToPosition: {x: 0, y: 0, z: 0}
  description: 
  drawGizmos: 0
  child: {fileID: 1428606794834663132}
  restartOnSuccess: 1
  restartOnFailure: 0
--- !u!114 &1428606794834663132
MonoBehaviour:
  m_ObjectHideFlags: 0
  m_CorrespondingSourceObject: {fileID: 0}
  m_PrefabInstance: {fileID: 0}
  m_PrefabAsset: {fileID: 0}
  m_GameObject: {fileID: 0}
  m_Enabled: 1
  m_EditorHideFlags: 0
  m_Script: {fileID: 11500000, guid: 61431bba79d7d7843b82bf1de71703f5, type: 3}
  m_Name: Sequencer
  m_EditorClassIdentifier: 
  state: 0
  started: 0
  guid: 9d398bc7e848f7340aa64ca9db8c61a6
  position: {x: -16, y: 229}
  position3D: {x: 0, y: 0, z: 0}
  blackboard:
    moveToPosition: {x: 0, y: 0, z: 0}
  description: 
  drawGizmos: 0
  children:
  - {fileID: 6301215992387309663}
--- !u!114 &6301215992387309663
MonoBehaviour:
  m_ObjectHideFlags: 0
  m_CorrespondingSourceObject: {fileID: 0}
  m_PrefabInstance: {fileID: 0}
  m_PrefabAsset: {fileID: 0}
  m_GameObject: {fileID: 0}
  m_Enabled: 1
  m_EditorHideFlags: 0
  m_Script: {fileID: 11500000, guid: abda251994e6eac41a54b7b67ea5e449, type: 3}
  m_Name: ContinuousRotate
  m_EditorClassIdentifier: 
  state: 0
  started: 0
  guid: b5a88e016d745584383293bf8ec335ea
  position: {x: -16, y: 358}
  position3D: {x: 0, y: 0, z: 0}
  blackboard:
    moveToPosition: {x: 0, y: 0, z: 0}
  description: 
  drawGizmos: 0
  rotationSpeed: 60
