%YAML 1.1
%TAG !u! tag:unity3d.com,2011:
--- !u!114 &-1313230952983788938
MonoBehaviour:
  m_ObjectHideFlags: 3
  m_CorrespondingSourceObject: {fileID: 0}
  m_PrefabInstance: {fileID: 0}
  m_PrefabAsset: {fileID: 0}
  m_GameObject: {fileID: 0}
  m_Enabled: 1
  m_EditorHideFlags: 0
  m_Script: {fileID: 11500000, guid: 598e2d32e2c7b0c418e030c3236d663a, type: 3}
  m_Name: ChromaticAberration
  m_EditorClassIdentifier: 
  active: 1
  quality:
    m_OverrideState: 1
    m_Value: 1
  spectralLut:
    m_OverrideState: 1
    m_Value: {fileID: 0}
  intensity:
    m_OverrideState: 1
    m_Value: 0.256
  m_MaxSamples:
    m_OverrideState: 1
    m_Value: 6
--- !u!114 &11400000
MonoBehaviour:
  m_ObjectHideFlags: 0
  m_CorrespondingSourceObject: {fileID: 0}
  m_PrefabInstance: {fileID: 0}
  m_PrefabAsset: {fileID: 0}
  m_GameObject: {fileID: 0}
  m_Enabled: 1
  m_EditorHideFlags: 0
  m_Script: {fileID: 11500000, guid: d7fd9488000d3734a9e00ee676215985, type: 3}
  m_Name: Sky and Fog Settings Profile
  m_EditorClassIdentifier: 
  components:
  - {fileID: 7853413551886081050}
  - {fileID: 7432054629804750446}
  - {fileID: 5787893637005842857}
  - {fileID: 1799293604727763197}
  - {fileID: 3343354487592541303}
  - {fileID: -1313230952983788938}
--- !u!114 &1799293604727763197
MonoBehaviour:
  m_ObjectHideFlags: 3
  m_CorrespondingSourceObject: {fileID: 0}
  m_PrefabInstance: {fileID: 0}
  m_PrefabAsset: {fileID: 0}
  m_GameObject: {fileID: 0}
  m_Enabled: 1
  m_EditorHideFlags: 0
  m_Script: {fileID: 11500000, guid: 24f077503be6ae942a1e1245dbd53ea9, type: 3}
  m_Name: Bloom
  m_EditorClassIdentifier: 
  active: 1
  quality:
    m_OverrideState: 1
    m_Value: 1
  threshold:
    m_OverrideState: 1
    m_Value: 1.12
  intensity:
    m_OverrideState: 1
    m_Value: 1
  scatter:
    m_OverrideState: 1
    m_Value: 0.668
  tint:
    m_OverrideState: 1
    m_Value: {r: 0.82494926, g: 0.6462264, b: 1, a: 1}
  dirtTexture:
    m_OverrideState: 1
    m_Value: {fileID: 0}
  dirtIntensity:
    m_OverrideState: 1
    m_Value: 0
  anamorphic:
    m_OverrideState: 0
    m_Value: 1
  m_Resolution:
    m_OverrideState: 1
    m_Value: 2
  m_HighQualityPrefiltering:
    m_OverrideState: 1
    m_Value: 0
  m_HighQualityFiltering:
    m_OverrideState: 1
    m_Value: 1
--- !u!114 &3343354487592541303
MonoBehaviour:
  m_ObjectHideFlags: 3
  m_CorrespondingSourceObject: {fileID: 0}
  m_PrefabInstance: {fileID: 0}
  m_PrefabAsset: {fileID: 0}
  m_GameObject: {fileID: 0}
  m_Enabled: 1
  m_EditorHideFlags: 0
  m_Script: {fileID: 11500000, guid: aaa3b8214f75b354e9ba2caadd022259, type: 3}
  m_Name: DepthOfField
  m_EditorClassIdentifier: 
  active: 1
  quality:
    m_OverrideState: 1
    m_Value: 3
  focusMode:
    m_OverrideState: 1
    m_Value: 2
  focusDistance:
    m_OverrideState: 1
    m_Value: 10
  focusDistanceMode:
    m_OverrideState: 1
    m_Value: 0
  nearFocusStart:
    m_OverrideState: 1
    m_Value: 0
  nearFocusEnd:
    m_OverrideState: 1
    m_Value: 4
  farFocusStart:
    m_OverrideState: 1
    m_Value: 15.08
  farFocusEnd:
    m_OverrideState: 1
    m_Value: 48.6
  m_NearSampleCount:
    m_OverrideState: 1
    m_Value: 4
  m_NearMaxBlur:
    m_OverrideState: 1
    m_Value: 0.88
  m_FarSampleCount:
    m_OverrideState: 1
    m_Value: 4
  m_FarMaxBlur:
    m_OverrideState: 1
    m_Value: 6.86
  m_Resolution:
    m_OverrideState: 1
    m_Value: 1
  m_HighQualityFiltering:
    m_OverrideState: 1
    m_Value: 1
  m_PhysicallyBased:
    m_OverrideState: 1
    m_Value: 0
--- !u!114 &5787893637005842857
MonoBehaviour:
  m_ObjectHideFlags: 3
  m_CorrespondingSourceObject: {fileID: 0}
  m_PrefabInstance: {fileID: 0}
  m_PrefabAsset: {fileID: 0}
  m_GameObject: {fileID: 0}
  m_Enabled: 1
  m_EditorHideFlags: 0
  m_Script: {fileID: 11500000, guid: 2d08ce26990eb1a4a9177b860541e702, type: 3}
  m_Name: Exposure
  m_EditorClassIdentifier: 
  active: 1
  mode:
    m_OverrideState: 1
    m_Value: 0
  meteringMode:
    m_OverrideState: 0
    m_Value: 2
  luminanceSource:
    m_OverrideState: 0
    m_Value: 1
  fixedExposure:
    m_OverrideState: 1
    m_Value: 2.58
  compensation:
    m_OverrideState: 1
    m_Value: 0
  limitMin:
    m_OverrideState: 0
    m_Value: -1
  limitMax:
    m_OverrideState: 0
    m_Value: 14
  curveMap:
    m_OverrideState: 0
    m_Value:
      serializedVersion: 2
      m_Curve:
      - serializedVersion: 3
        time: -10
        value: -10
        inSlope: 0
        outSlope: 1
        tangentMode: 0
        weightedMode: 0
        inWeight: 0
        outWeight: 0
      - serializedVersion: 3
        time: 20
        value: 20
        inSlope: 1
        outSlope: 0
        tangentMode: 0
        weightedMode: 0
        inWeight: 0
        outWeight: 0
      m_PreInfinity: 2
      m_PostInfinity: 2
      m_RotationOrder: 4
  limitMinCurveMap:
    m_OverrideState: 0
    m_Value:
      serializedVersion: 2
      m_Curve:
      - serializedVersion: 3
        time: -10
        value: -12
        inSlope: 0
        outSlope: 1
        tangentMode: 0
        weightedMode: 0
        inWeight: 0
        outWeight: 0
      - serializedVersion: 3
        time: 20
        value: 18
        inSlope: 1
        outSlope: 0
        tangentMode: 0
        weightedMode: 0
        inWeight: 0
        outWeight: 0
      m_PreInfinity: 2
      m_PostInfinity: 2
      m_RotationOrder: 4
  limitMaxCurveMap:
    m_OverrideState: 0
    m_Value:
      serializedVersion: 2
      m_Curve:
      - serializedVersion: 3
        time: -10
        value: -8
        inSlope: 0
        outSlope: 1
        tangentMode: 0
        weightedMode: 0
        inWeight: 0
        outWeight: 0
      - serializedVersion: 3
        time: 20
        value: 22
        inSlope: 1
        outSlope: 0
        tangentMode: 0
        weightedMode: 0
        inWeight: 0
        outWeight: 0
      m_PreInfinity: 2
      m_PostInfinity: 2
      m_RotationOrder: 4
  adaptationMode:
    m_OverrideState: 0
    m_Value: 1
  adaptationSpeedDarkToLight:
    m_OverrideState: 0
    m_Value: 3
  adaptationSpeedLightToDark:
    m_OverrideState: 0
    m_Value: 1
  weightTextureMask:
    m_OverrideState: 0
    m_Value: {fileID: 0}
  histogramPercentages:
    m_OverrideState: 0
    m_Value: {x: 40, y: 90}
  histogramUseCurveRemapping:
    m_OverrideState: 0
    m_Value: 0
  targetMidGray:
    m_OverrideState: 0
    m_Value: 0
  centerAroundExposureTarget:
    m_OverrideState: 0
    m_Value: 0
  proceduralCenter:
    m_OverrideState: 0
    m_Value: {x: 0.5, y: 0.5}
  proceduralRadii:
    m_OverrideState: 0
    m_Value: {x: 0.3, y: 0.3}
  maskMinIntensity:
    m_OverrideState: 0
    m_Value: -30
  maskMaxIntensity:
    m_OverrideState: 0
    m_Value: 30
  proceduralSoftness:
    m_OverrideState: 0
    m_Value: 0.5
--- !u!114 &7432054629804750446
MonoBehaviour:
  m_ObjectHideFlags: 3
  m_CorrespondingSourceObject: {fileID: 0}
  m_PrefabInstance: {fileID: 0}
  m_PrefabAsset: {fileID: 0}
  m_GameObject: {fileID: 0}
  m_Enabled: 1
  m_EditorHideFlags: 0
  m_Script: {fileID: 11500000, guid: 953beb541740ddc499d005ee80c9ff29, type: 3}
  m_Name: Fog
  m_EditorClassIdentifier: 
  active: 1
  quality:
    m_OverrideState: 0
    m_Value: 1
  enabled:
    m_OverrideState: 1
    m_Value: 1
  colorMode:
    m_OverrideState: 0
    m_Value: 1
  color:
    m_OverrideState: 0
    m_Value: {r: 0.5, g: 0.5, b: 0.5, a: 1}
  tint:
    m_OverrideState: 0
    m_Value: {r: 1, g: 1, b: 1, a: 1}
  maxFogDistance:
    m_OverrideState: 0
    m_Value: 5000
  mipFogMaxMip:
    m_OverrideState: 0
    m_Value: 0.5
  mipFogNear:
    m_OverrideState: 0
    m_Value: 0
  mipFogFar:
    m_OverrideState: 0
    m_Value: 1000
  baseHeight:
    m_OverrideState: 0
    m_Value: 0
  maximumHeight:
    m_OverrideState: 0
    m_Value: 50
  meanFreePath:
    m_OverrideState: 0
    m_Value: 400
  enableVolumetricFog:
    m_OverrideState: 1
    m_Value: 1
  albedo:
    m_OverrideState: 0
    m_Value: {r: 1, g: 1, b: 1, a: 1}
  globalLightProbeDimmer:
    m_OverrideState: 0
    m_Value: 1
  depthExtent:
    m_OverrideState: 0
    m_Value: 64
  denoisingMode:
    m_OverrideState: 0
    m_Value: 2
  anisotropy:
    m_OverrideState: 0
    m_Value: 0
  sliceDistributionUniformity:
    m_OverrideState: 0
    m_Value: 0.75
  m_FogControlMode:
    m_OverrideState: 0
    m_Value: 0
  screenResolutionPercentage:
    m_OverrideState: 0
    m_Value: 12.5
  volumeSliceCount:
    m_OverrideState: 0
    m_Value: 64
  m_VolumetricFogBudget:
    m_OverrideState: 0
    m_Value: 0.33
  m_ResolutionDepthRatio:
    m_OverrideState: 0
    m_Value: 0.666
  directionalLightsOnly:
    m_OverrideState: 0
    m_Value: 0
--- !u!114 &7853413551886081050
MonoBehaviour:
  m_ObjectHideFlags: 3
  m_CorrespondingSourceObject: {fileID: 0}
  m_PrefabInstance: {fileID: 0}
  m_PrefabAsset: {fileID: 0}
  m_GameObject: {fileID: 0}
  m_Enabled: 1
  m_EditorHideFlags: 0
  m_Script: {fileID: 11500000, guid: 0d7593b3a9277ac4696b20006c21dde2, type: 3}
  m_Name: VisualEnvironment
  m_EditorClassIdentifier: 
  active: 1
  skyType:
    m_OverrideState: 1
    m_Value: 4
  cloudType:
    m_OverrideState: 1
    m_Value: 0
  skyAmbientMode:
    m_OverrideState: 0
    m_Value: 1
  windOrientation:
    m_OverrideState: 1
    m_Value: 0
  windSpeed:
    m_OverrideState: 1
    m_Value: 100
  fogType:
    m_OverrideState: 1
    m_Value: 0
